^E:\VSPROJECTS\AVPZ\MATRIXEXAMPLE\MATRIXEXAMPLE\MATRIXEXAMPLE.CPP
C:\WINDOWS\GLOBALIZATION\SORTING\SORTDEFAULT.NLS
E:\VISUAL STUDIO\VC\TOOLS\MSVC\14.28.29333\BIN\HOSTX86\X86\1033\CLUI.DLL
C:\WINDOWS\SYSTEM32\TZRES.DLL
E:\VISUAL STUDIO\VC\TOOLS\MSVC\14.28.29333\INCLUDE\IOSTREAM
E:\VISUAL STUDIO\VC\TOOLS\MSVC\14.28.29333\INCLUDE\YVALS_CORE.H
E:\VISUAL STUDIO\VC\TOOLS\MSVC\14.28.29333\INCLUDE\VCRUNTIME.H
E:\VISUAL STUDIO\VC\TOOLS\MSVC\14.28.29333\INCLUDE\SAL.H
E:\VISUAL STUDIO\VC\TOOLS\MSVC\14.28.29333\INCLUDE\CONCURRENCYSAL.H
E:\VISUAL STUDIO\VC\TOOLS\MSVC\14.28.29333\INCLUDE\VADEFS.H
E:\VISUAL STUDIO\VC\TOOLS\MSVC\14.28.29333\INCLUDE\XKEYCHECK.H
E:\VISUAL STUDIO\VC\TOOLS\MSVC\14.28.29333\INCLUDE\ISTREAM
E:\VISUAL STUDIO\VC\TOOLS\MSVC\14.28.29333\INCLUDE\OSTREAM
E:\VISUAL STUDIO\VC\TOOLS\MSVC\14.28.29333\INCLUDE\IOS
E:\VISUAL STUDIO\VC\TOOLS\MSVC\14.28.29333\INCLUDE\XLOCNUM
E:\VISUAL STUDIO\VC\TOOLS\MSVC\14.28.29333\INCLUDE\CLIMITS
E:\VISUAL STUDIO\VC\TOOLS\MSVC\14.28.29333\INCLUDE\LIMITS.H
E:\VISUAL STUDIO\VC\TOOLS\MSVC\14.28.29333\INCLUDE\CMATH
E:\VISUAL STUDIO\VC\TOOLS\MSVC\14.28.29333\INCLUDE\YVALS.H
C:\PROGRAM FILES (X86)\WINDOWS KITS\10\INCLUDE\10.0.18362.0\UCRT\CRTDBG.H
C:\PROGRAM FILES (X86)\WINDOWS KITS\10\INCLUDE\10.0.18362.0\UCRT\CORECRT.H
E:\VISUAL STUDIO\VC\TOOLS\MSVC\14.28.29333\INCLUDE\VCRUNTIME_NEW_DEBUG.H
E:\VISUAL STUDIO\VC\TOOLS\MSVC\14.28.29333\INCLUDE\VCRUNTIME_NEW.H
E:\VISUAL STUDIO\VC\TOOLS\MSVC\14.28.29333\INCLUDE\CRTDEFS.H
E:\VISUAL STUDIO\VC\TOOLS\MSVC\14.28.29333\INCLUDE\USE_ANSI.H
E:\VISUAL STUDIO\VC\TOOLS\MSVC\14.28.29333\INCLUDE\CSTDLIB
C:\PROGRAM FILES (X86)\WINDOWS KITS\10\INCLUDE\10.0.18362.0\UCRT\MATH.H
C:\PROGRAM FILES (X86)\WINDOWS KITS\10\INCLUDE\10.0.18362.0\UCRT\CORECRT_MATH.H
C:\PROGRAM FILES (X86)\WINDOWS KITS\10\INCLUDE\10.0.18362.0\UCRT\STDLIB.H
C:\PROGRAM FILES (X86)\WINDOWS KITS\10\INCLUDE\10.0.18362.0\UCRT\CORECRT_MALLOC.H
C:\PROGRAM FILES (X86)\WINDOWS KITS\10\INCLUDE\10.0.18362.0\UCRT\CORECRT_SEARCH.H
C:\PROGRAM FILES (X86)\WINDOWS KITS\10\INCLUDE\10.0.18362.0\UCRT\STDDEF.H
C:\PROGRAM FILES (X86)\WINDOWS KITS\10\INCLUDE\10.0.18362.0\UCRT\CORECRT_WSTDLIB.H
E:\VISUAL STUDIO\VC\TOOLS\MSVC\14.28.29333\INCLUDE\XTR1COMMON
E:\VISUAL STUDIO\VC\TOOLS\MSVC\14.28.29333\INCLUDE\CSTDIO
C:\PROGRAM FILES (X86)\WINDOWS KITS\10\INCLUDE\10.0.18362.0\UCRT\STDIO.H
C:\PROGRAM FILES (X86)\WINDOWS KITS\10\INCLUDE\10.0.18362.0\UCRT\CORECRT_WSTDIO.H
C:\PROGRAM FILES (X86)\WINDOWS KITS\10\INCLUDE\10.0.18362.0\UCRT\CORECRT_STDIO_CONFIG.H
E:\VISUAL STUDIO\VC\TOOLS\MSVC\14.28.29333\INCLUDE\ITERATOR
E:\VISUAL STUDIO\VC\TOOLS\MSVC\14.28.29333\INCLUDE\IOSFWD
E:\VISUAL STUDIO\VC\TOOLS\MSVC\14.28.29333\INCLUDE\CSTRING
C:\PROGRAM FILES (X86)\WINDOWS KITS\10\INCLUDE\10.0.18362.0\UCRT\STRING.H
C:\PROGRAM FILES (X86)\WINDOWS KITS\10\INCLUDE\10.0.18362.0\UCRT\CORECRT_MEMORY.H
C:\PROGRAM FILES (X86)\WINDOWS KITS\10\INCLUDE\10.0.18362.0\UCRT\CORECRT_MEMCPY_S.H
C:\PROGRAM FILES (X86)\WINDOWS KITS\10\INCLUDE\10.0.18362.0\UCRT\ERRNO.H
E:\VISUAL STUDIO\VC\TOOLS\MSVC\14.28.29333\INCLUDE\VCRUNTIME_STRING.H
C:\PROGRAM FILES (X86)\WINDOWS KITS\10\INCLUDE\10.0.18362.0\UCRT\CORECRT_WSTRING.H
E:\VISUAL STUDIO\VC\TOOLS\MSVC\14.28.29333\INCLUDE\CWCHAR
C:\PROGRAM FILES (X86)\WINDOWS KITS\10\INCLUDE\10.0.18362.0\UCRT\WCHAR.H
C:\PROGRAM FILES (X86)\WINDOWS KITS\10\INCLUDE\10.0.18362.0\UCRT\CORECRT_WCONIO.H
C:\PROGRAM FILES (X86)\WINDOWS KITS\10\INCLUDE\10.0.18362.0\UCRT\CORECRT_WCTYPE.H
C:\PROGRAM FILES (X86)\WINDOWS KITS\10\INCLUDE\10.0.18362.0\UCRT\CORECRT_WDIRECT.H
C:\PROGRAM FILES (X86)\WINDOWS KITS\10\INCLUDE\10.0.18362.0\UCRT\CORECRT_WIO.H
C:\PROGRAM FILES (X86)\WINDOWS KITS\10\INCLUDE\10.0.18362.0\UCRT\CORECRT_SHARE.H
C:\PROGRAM FILES (X86)\WINDOWS KITS\10\INCLUDE\10.0.18362.0\UCRT\CORECRT_WPROCESS.H
C:\PROGRAM FILES (X86)\WINDOWS KITS\10\INCLUDE\10.0.18362.0\UCRT\CORECRT_WTIME.H
C:\PROGRAM FILES (X86)\WINDOWS KITS\10\INCLUDE\10.0.18362.0\UCRT\SYS\STAT.H
C:\PROGRAM FILES (X86)\WINDOWS KITS\10\INCLUDE\10.0.18362.0\UCRT\SYS\TYPES.H
E:\VISUAL STUDIO\VC\TOOLS\MSVC\14.28.29333\INCLUDE\XSTDDEF
E:\VISUAL STUDIO\VC\TOOLS\MSVC\14.28.29333\INCLUDE\CSTDDEF
E:\VISUAL STUDIO\VC\TOOLS\MSVC\14.28.29333\INCLUDE\INITIALIZER_LIST
E:\VISUAL STUDIO\VC\TOOLS\MSVC\14.28.29333\INCLUDE\XUTILITY
E:\VISUAL STUDIO\VC\TOOLS\MSVC\14.28.29333\INCLUDE\UTILITY
E:\VISUAL STUDIO\VC\TOOLS\MSVC\14.28.29333\INCLUDE\TYPE_TRAITS
E:\VISUAL STUDIO\VC\TOOLS\MSVC\14.28.29333\INCLUDE\STREAMBUF
E:\VISUAL STUDIO\VC\TOOLS\MSVC\14.28.29333\INCLUDE\XIOSBASE
C:\PROGRAM FILES (X86)\WINDOWS KITS\10\INCLUDE\10.0.18362.0\UCRT\SHARE.H
E:\VISUAL STUDIO\VC\TOOLS\MSVC\14.28.29333\INCLUDE\SYSTEM_ERROR
E:\VISUAL STUDIO\VC\TOOLS\MSVC\14.28.29333\INCLUDE\__MSVC_SYSTEM_ERROR_ABI.HPP
E:\VISUAL STUDIO\VC\TOOLS\MSVC\14.28.29333\INCLUDE\CERRNO
E:\VISUAL STUDIO\VC\TOOLS\MSVC\14.28.29333\INCLUDE\STDEXCEPT
E:\VISUAL STUDIO\VC\TOOLS\MSVC\14.28.29333\INCLUDE\EXCEPTION
C:\PROGRAM FILES (X86)\WINDOWS KITS\10\INCLUDE\10.0.18362.0\UCRT\MALLOC.H
E:\VISUAL STUDIO\VC\TOOLS\MSVC\14.28.29333\INCLUDE\VCRUNTIME_EXCEPTION.H
E:\VISUAL STUDIO\VC\TOOLS\MSVC\14.28.29333\INCLUDE\EH.H
C:\PROGRAM FILES (X86)\WINDOWS KITS\10\INCLUDE\10.0.18362.0\UCRT\CORECRT_TERMINATE.H
E:\VISUAL STUDIO\VC\TOOLS\MSVC\14.28.29333\INCLUDE\XSTRING
E:\VISUAL STUDIO\VC\TOOLS\MSVC\14.28.29333\INCLUDE\XMEMORY
E:\VISUAL STUDIO\VC\TOOLS\MSVC\14.28.29333\INCLUDE\CSTDINT
E:\VISUAL STUDIO\VC\TOOLS\MSVC\14.28.29333\INCLUDE\STDINT.H
E:\VISUAL STUDIO\VC\TOOLS\MSVC\14.28.29333\INCLUDE\LIMITS
E:\VISUAL STUDIO\VC\TOOLS\MSVC\14.28.29333\INCLUDE\CFLOAT
C:\PROGRAM FILES (X86)\WINDOWS KITS\10\INCLUDE\10.0.18362.0\UCRT\FLOAT.H
E:\VISUAL STUDIO\VC\TOOLS\MSVC\14.28.29333\INCLUDE\INTRIN0.H
E:\VISUAL STUDIO\VC\TOOLS\MSVC\14.28.29333\INCLUDE\ISA_AVAILABILITY.H
E:\VISUAL STUDIO\VC\TOOLS\MSVC\14.28.29333\INCLUDE\NEW
E:\VISUAL STUDIO\VC\TOOLS\MSVC\14.28.29333\INCLUDE\XATOMIC.H
E:\VISUAL STUDIO\VC\TOOLS\MSVC\14.28.29333\INCLUDE\XCALL_ONCE.H
E:\VISUAL STUDIO\VC\TOOLS\MSVC\14.28.29333\INCLUDE\XERRC.H
E:\VISUAL STUDIO\VC\TOOLS\MSVC\14.28.29333\INCLUDE\ATOMIC
E:\VISUAL STUDIO\VC\TOOLS\MSVC\14.28.29333\INCLUDE\XTHREADS.H
E:\VISUAL STUDIO\VC\TOOLS\MSVC\14.28.29333\INCLUDE\XTIMEC.H
C:\PROGRAM FILES (X86)\WINDOWS KITS\10\INCLUDE\10.0.18362.0\UCRT\TIME.H
E:\VISUAL STUDIO\VC\TOOLS\MSVC\14.28.29333\INCLUDE\XLOCALE
E:\VISUAL STUDIO\VC\TOOLS\MSVC\14.28.29333\INCLUDE\MEMORY
E:\VISUAL STUDIO\VC\TOOLS\MSVC\14.28.29333\INCLUDE\TYPEINFO
E:\VISUAL STUDIO\VC\TOOLS\MSVC\14.28.29333\INCLUDE\VCRUNTIME_TYPEINFO.H
E:\VISUAL STUDIO\VC\TOOLS\MSVC\14.28.29333\INCLUDE\XFACET
E:\VISUAL STUDIO\VC\TOOLS\MSVC\14.28.29333\INCLUDE\XLOCINFO
E:\VISUAL STUDIO\VC\TOOLS\MSVC\14.28.29333\INCLUDE\XLOCINFO.H
C:\PROGRAM FILES (X86)\WINDOWS KITS\10\INCLUDE\10.0.18362.0\UCRT\CTYPE.H
C:\PROGRAM FILES (X86)\WINDOWS KITS\10\INCLUDE\10.0.18362.0\UCRT\LOCALE.H
E:\VISUAL STUDIO\VC\TOOLS\MSVC\14.28.29333\INCLUDE\IOMANIP
E:\VISUAL STUDIO\VC\TOOLS\MSVC\14.28.29333\INCLUDE\XLOCMON
E:\VISUAL STUDIO\VC\TOOLS\MSVC\14.28.29333\INCLUDE\XLOCTIME
E:\VISUAL STUDIO\VC\TOOLS\MSVC\14.28.29333\INCLUDE\CTIME
E:\VISUAL STUDIO\VC\TOOLS\MSVC\14.28.29333\INCLUDE\RANDOM
E:\VISUAL STUDIO\VC\TOOLS\MSVC\14.28.29333\INCLUDE\ALGORITHM
E:\VISUAL STUDIO\VC\TOOLS\MSVC\14.28.29333\INCLUDE\VECTOR
E:\VISUAL STUDIO\VC\TOOLS\MSVC\14.28.29333\INCLUDE\STRING
E:\VISUAL STUDIO\VC\TOOLS\MSVC\14.28.29333\INCLUDE\CCTYPE
